{
    "swagger": "2.0",
    "info": {
        "title": "DRAX API",
        "description": "",
        "version": "1.0.0"
    },
    "paths": {
        "/api/login": {
            "post": {
                "tags": [
                    "Services"
                ],
                "summary": "Perform login",
                "description": "Login and password to log in.",
                "consumes": [
                    "application/json"
                ],
                "produces": [
                    "application/json"
                ],
                "parameters": [
                    {
                        "name": "login object",
                        "in": "body",
                        "description": "JSON Object which represents filter conditions",
                        "required": true,
                        "schema": {
                            "properties": {
                                "user": {
                                    "description": "basePath=\"/\",",
                                    "type": "string",
                                    "example": ""
                                },
                                "password": {
                                    "description": "basePath=\"/\",",
                                    "type": "string",
                                    "example": ""
                                }
                            },
                            "type": "object"
                        }
                    }
                ],
                "responses": {
                    "200": {
                        "description": "Rerurn Error or Object User"
                    }
                }
            }
        },
        "/api/logout": {
            "get": {
                "tags": [
                    "Services"
                ],
                "summary": "Perform logout",
                "description": "logout User",
                "produces": [
                    "application/json"
                ],
                "responses": {
                    "200": {
                        "description": "Logout User, redirect to Home"
                    }
                }
            }
        },
        "/api/risersfallers": {
            "get": {
                "tags": [
                    "Services"
                ],
                "summary": "GET Risers & Fallers",
                "description": "Risers & Fallers",
                "produces": [
                    "application/json"
                ],
                "responses": {
                    "200": {
                        "description": ""
                    }
                }
            }
        },
        "/api/rns": {
            "get": {
                "tags": [
                    "Services"
                ],
                "summary": "GET RNS Alerts",
                "description": "RNS Alerts",
                "produces": [
                    "application/json"
                ],
                "responses": {
                    "200": {
                        "description": ""
                    }
                }
            }
        },
        "/api/search": {
            "get": {
                "tags": [
                    "Services"
                ],
                "summary": "Get profiles",
                "description": "Get Candidates profiles",
                "produces": [
                    "application/json"
                ],
                "parameters": [
                    {
                        "name": "Search params",
                        "in": "body",
                        "description": "filters[gender][]=M&\r\n           filters[location][]=Newcastle-upon-Tyne&\r\n            filters[sector][]=Industrial Engineering&\r\n           filters[nee][]=NED&\r\n           filters[ipo][]=Yes&\r\n           filters[capacity][]=Yes",
                        "schema": {
                            "type": "string",
                            "example": ""
                        }
                    }
                ],
                "responses": {
                    "200": {
                        "description": ""
                    }
                }
            }
        },
        "/api/profile/{Candidate_ID}": {
            "get": {
                "tags": [
                    "Services"
                ],
                "summary": "Perform view candidate profile",
                "description": "view candidate profile",
                "consumes": [
                    "application/json"
                ],
                "produces": [
                    "application/json"
                ],
                "parameters": [
                    {
                        "name": "Candidate_ID",
                        "in": "path",
                        "description": "Candidate_ID (100001)",
                        "required": true,
                        "type": "string"
                    }
                ],
                "responses": {
                    "200": {
                        "description": ""
                    }
                }
            }
        }
    },
    "definitions": {}
}